"geobrand","variable","value"
"Brand A","base",57.76
"Brand A","FF_Calls",9.68
"Brand A","Trade_Display",0.18
"Brand A","Trade_Holiday",1.4
"Brand A","Trade_Shelf",1.15
"Brand A","Sampling",0.18
"Brand A","Training_Program",1.19
"Brand A","TV_Advertising",20.46
"Brand A","Magazine_Advertising",5.83
"Brand A","Online_Display",0.39
"Brand A","Online_Search",1.78
"Brand B","base",77.21
"Brand B","FF_Calls",6.84
"Brand B","Trade_Display",1.17
"Brand B","Trade_Holiday",0.21
"Brand B","Trade_Poster",0.24
"Brand B","Trade_Promokids",0.17
"Brand B","Trade_Shelf",0.39
"Brand B","Sampling",0.12
"Brand B","Training_Program",0.2
"Brand B","TV_Advertising",10.69
"Brand B","Magazine_Advertising",0.09
"Brand B","Online_Display",0.21
"Brand B","Online_Search",2.46
"Brand C","base",78.14
"Brand C","FF_Calls",6.63
"Brand C","Trade_Display",0.3
"Brand C","Training_Program",0.47
"Brand C","TV_Advertising",9.65
"Brand C","Magazine_Advertising",0.46
"Brand C","Online_Display",0.67
"Brand C","Online_Search",3.68
"Brand D","base",80.12
"Brand D","FF_Calls",0.85
"Brand D","Trade_Holiday",0.21
"Brand D","Trade_Shelf",0.04
"Brand D","Sampling",0.04
"Brand D","TV_Advertising",14.43
"Brand D","Magazine_Advertising",0.47
"Brand D","Online_Display",1.46
"Brand D","Online_Search",2.38
