"geobrand","variable","value"
"Brand A","FF_Calls",859.085809577332
"Brand A","Trade_Display",49.3185503875202
"Brand A","Trade_Holiday",480.902324519314
"Brand A","Trade_Shelf",452.330900162019
"Brand A","Sampling",26.065964139844
"Brand A","Training_Program",202.103344660457
"Brand A","TV_Advertising",2082.59995341375
"Brand A","Magazine_Advertising",926.74299699354
"Brand A","Online_Display",84.0389888282036
"Brand A","Online_Search",100.660776301912
"Brand B","FF_Calls",904.729182199075
"Brand B","Trade_Display",256.987812037404
"Brand B","Trade_Holiday",107.93796361795
"Brand B","Trade_Poster",104.977434105432
"Brand B","Trade_Promokids",106.225692907624
"Brand B","Trade_Shelf",96.4973542005407
"Brand B","Sampling",20.6345051724047
"Brand B","Training_Program",52.0704552982916
"Brand B","TV_Advertising",1505.3571167447
"Brand B","Magazine_Advertising",100.310622730772
"Brand B","Online_Display",499.68330800307
"Brand B","Online_Search",203.360128806676
"Brand C","FF_Calls",1180.80086146357
"Brand C","Trade_Display",181.447796344842
"Brand C","Training_Program",249.349987156077
"Brand C","TV_Advertising",2476.73095886563
"Brand C","Magazine_Advertising",506.372745302094
"Brand C","Online_Display",476.351942753092
"Brand C","Online_Search",501.506697844306
"Brand D","FF_Calls",198.375334444689
"Brand D","Trade_Holiday",196.993576628102
"Brand D","Trade_Shelf",49.8477579680646
"Brand D","Sampling",15.8648184796079
"Brand D","TV_Advertising",4001.00503876178
"Brand D","Magazine_Advertising",248.22050061028
"Brand D","Online_Display",983.717963786393
"Brand D","Online_Search",395.007022236654
